vcd/Sumador4Bits.vcd
$date
	Fri Oct  6 14:18:40 2023
$end
$version
	Icarus Verilog
$end
$timescale
	1ns
$end
$scope module Sumador4Bits_sumador4bits_tb $end
$var wire 1 ! s3 $end
$var wire 1 " s2 $end
$var wire 1 # s1 $end
$var wire 1 $ s0 $end
$var wire 1 % cout $end
$var reg 1 & Cin $end
$var reg 1 ' a0 $end
$var reg 1 ( a1 $end
$var reg 1 ) a2 $end
$var reg 1 * a3 $end
$var reg 1 + b0 $end
$var reg 1 , b1 $end
$var reg 1 - b2 $end
$var reg 1 . b3 $end
$var integer 32 / i [31:0] $end
$scope module Sumador4Bits0 $end
$var wire 1 & Cin $end
$var wire 1 ' a0 $end
$var wire 1 ( a1 $end
$var wire 1 ) a2 $end
$var wire 1 * a3 $end
$var wire 1 + b0 $end
$var wire 1 , b1 $end
$var wire 1 - b2 $end
$var wire 1 . b3 $end
$var wire 1 0 s6 $end
$var wire 1 1 s5 $end
$var wire 1 2 s4 $end
$var wire 1 ! s3 $end
$var wire 1 " s2 $end
$var wire 1 # s1 $end
$var wire 1 $ s0 $end
$var wire 1 % cout $end
$scope module SumadorCompleto_i0 $end
$var wire 1 ' A $end
$var wire 1 + B $end
$var wire 1 & Cin $end
$var wire 1 2 Cout $end
$var wire 1 3 s2 $end
$var wire 1 4 s1 $end
$var wire 1 5 s0 $end
$var wire 1 $ St $end
$scope module MedioSumador_i0 $end
$var wire 1 ' A $end
$var wire 1 + B $end
$var wire 1 4 Co $end
$var wire 1 5 S $end
$upscope $end
$scope module MedioSumador_i1 $end
$var wire 1 5 A $end
$var wire 1 & B $end
$var wire 1 3 Co $end
$var wire 1 $ S $end
$upscope $end
$upscope $end
$scope module SumadorCompleto_i1 $end
$var wire 1 ( A $end
$var wire 1 , B $end
$var wire 1 2 Cin $end
$var wire 1 1 Cout $end
$var wire 1 6 s2 $end
$var wire 1 7 s1 $end
$var wire 1 8 s0 $end
$var wire 1 # St $end
$scope module MedioSumador_i0 $end
$var wire 1 ( A $end
$var wire 1 , B $end
$var wire 1 7 Co $end
$var wire 1 8 S $end
$upscope $end
$scope module MedioSumador_i1 $end
$var wire 1 8 A $end
$var wire 1 2 B $end
$var wire 1 6 Co $end
$var wire 1 # S $end
$upscope $end
$upscope $end
$scope module SumadorCompleto_i2 $end
$var wire 1 ) A $end
$var wire 1 - B $end
$var wire 1 1 Cin $end
$var wire 1 0 Cout $end
$var wire 1 9 s2 $end
$var wire 1 : s1 $end
$var wire 1 ; s0 $end
$var wire 1 " St $end
$scope module MedioSumador_i0 $end
$var wire 1 ) A $end
$var wire 1 - B $end
$var wire 1 : Co $end
$var wire 1 ; S $end
$upscope $end
$scope module MedioSumador_i1 $end
$var wire 1 ; A $end
$var wire 1 1 B $end
$var wire 1 9 Co $end
$var wire 1 " S $end
$upscope $end
$upscope $end
$scope module SumadorCompleto_i3 $end
$var wire 1 * A $end
$var wire 1 . B $end
$var wire 1 0 Cin $end
$var wire 1 % Cout $end
$var wire 1 < s2 $end
$var wire 1 = s1 $end
$var wire 1 > s0 $end
$var wire 1 ! St $end
$scope module MedioSumador_i0 $end
$var wire 1 * A $end
$var wire 1 . B $end
$var wire 1 = Co $end
$var wire 1 > S $end
$upscope $end
$scope module MedioSumador_i1 $end
$var wire 1 > A $end
$var wire 1 0 B $end
$var wire 1 < Co $end
$var wire 1 ! S $end
$upscope $end
$upscope $end
$upscope $end
$upscope $end
$enddefinitions $end
#0
$dumpvars
0>
0=
0<
0;
0:
09
08
07
06
05
04
03
02
01
00
b0 /
0.
0-
0,
0+
0*
0)
0(
0'
0&
0%
0$
0#
0"
0!
$end
#10000
1!
1>
1.
b1 /
#20000
0.
1*
b10 /
#30000
0!
1%
0>
1=
1.
b11 /
#40000
0%
1"
0=
1;
0.
0*
1-
b100 /
#50000
1!
1>
1.
b101 /
#60000
0.
1*
b110 /
#70000
0!
1%
0>
1=
1.
b111 /
#80000
0%
0=
0.
0*
0-
1)
b1000 /
#90000
1!
1>
1.
b1001 /
#100000
0.
1*
b1010 /
#110000
0!
1%
0>
1=
1.
b1011 /
#120000
1!
0%
0"
10
0=
0;
1:
0.
0*
1-
b1100 /
#130000
1%
0!
1<
1>
1.
b1101 /
#140000
0.
1*
b1110 /
#150000
1!
0<
0>
1=
1.
b1111 /
#160000
0!
0%
00
1#
0=
0:
18
0.
0*
0-
0)
1,
b10000 /
#170000
1!
1>
1.
b10001 /
#180000
0.
1*
b10010 /
#190000
0!
1%
0>
1=
1.
b10011 /
#200000
0%
1"
0=
1;
0.
0*
1-
b10100 /
#210000
1!
1>
1.
b10101 /
#220000
0.
1*
b10110 /
#230000
0!
1%
0>
1=
1.
b10111 /
#240000
0%
0=
0.
0*
0-
1)
b11000 /
#250000
1!
1>
1.
b11001 /
#260000
0.
1*
b11010 /
#270000
0!
1%
0>
1=
1.
b11011 /
#280000
1!
0%
0"
10
0=
0;
1:
0.
0*
1-
b11100 /
#290000
1%
0!
1<
1>
1.
b11101 /
#300000
0.
1*
b11110 /
#310000
1!
0<
0>
1=
1.
b11111 /
#320000
0!
0%
00
0=
0:
0.
0*
0-
0)
0,
1(
b100000 /
#330000
1!
1>
1.
b100001 /
#340000
0.
1*
b100010 /
#350000
0!
1%
0>
1=
1.
b100011 /
#360000
0%
1"
0=
1;
0.
0*
1-
b100100 /
#370000
1!
1>
1.
b100101 /
#380000
0.
1*
b100110 /
#390000
0!
1%
0>
1=
1.
b100111 /
#400000
0%
0=
0.
0*
0-
1)
b101000 /
#410000
1!
1>
1.
b101001 /
#420000
0.
1*
b101010 /
#430000
0!
1%
0>
1=
1.
b101011 /
#440000
1!
0%
0"
10
0=
0;
1:
0.
0*
1-
b101100 /
#450000
1%
0!
1<
1>
1.
b101101 /
#460000
0.
1*
b101110 /
#470000
1!
0<
0>
1=
1.
b101111 /
#480000
0!
1"
0%
00
0#
11
0=
0:
08
17
0.
0*
0-
0)
1,
b110000 /
#490000
1!
1>
1.
b110001 /
#500000
0.
1*
b110010 /
#510000
0!
1%
0>
1=
1.
b110011 /
#520000
1!
10
0%
0"
19
0=
1;
0.
0*
1-
b110100 /
#530000
1%
0!
1<
1>
1.
b110101 /
#540000
0.
1*
b110110 /
#550000
1!
0<
0>
1=
1.
b110111 /
#560000
0%
0=
0.
0*
0-
1)
b111000 /
#570000
1%
0!
1<
1>
1.
b111001 /
#580000
0.
1*
b111010 /
#590000
1!
0<
0>
1=
1.
b111011 /
#600000
0%
1"
09
0=
0;
1:
0.
0*
1-
b111100 /
#610000
1%
0!
1<
1>
1.
b111101 /
#620000
0.
1*
b111110 /
#630000
1!
0<
0>
1=
1.
b111111 /
#640000
0!
0"
0%
00
01
1$
0=
0:
07
15
0.
0*
0-
0)
0,
0(
1+
b1000000 /
#650000
1!
1>
1.
b1000001 /
#660000
0.
1*
b1000010 /
#670000
0!
1%
0>
1=
1.
b1000011 /
#680000
0%
1"
0=
1;
0.
0*
1-
b1000100 /
#690000
1!
1>
1.
b1000101 /
#700000
0.
1*
b1000110 /
#710000
0!
1%
0>
1=
1.
b1000111 /
#720000
0%
0=
0.
0*
0-
1)
b1001000 /
#730000
1!
1>
1.
b1001001 /
#740000
0.
1*
b1001010 /
#750000
0!
1%
0>
1=
1.
b1001011 /
#760000
1!
0%
0"
10
0=
0;
1:
0.
0*
1-
b1001100 /
#770000
1%
0!
1<
1>
1.
b1001101 /
#780000
0.
1*
b1001110 /
#790000
1!
0<
0>
1=
1.
b1001111 /
#800000
0!
0%
00
1#
0=
0:
18
0.
0*
0-
0)
1,
b1010000 /
#810000
1!
1>
1.
b1010001 /
#820000
0.
1*
b1010010 /
#830000
0!
1%
0>
1=
1.
b1010011 /
#840000
0%
1"
0=
1;
0.
0*
1-
b1010100 /
#850000
1!
1>
1.
b1010101 /
#860000
0.
1*
b1010110 /
#870000
0!
1%
0>
1=
1.
b1010111 /
#880000
0%
0=
0.
0*
0-
1)
b1011000 /
#890000
1!
1>
1.
b1011001 /
#900000
0.
1*
b1011010 /
#910000
0!
1%
0>
1=
1.
b1011011 /
#920000
1!
0%
0"
10
0=
0;
1:
0.
0*
1-
b1011100 /
#930000
1%
0!
1<
1>
1.
b1011101 /
#940000
0.
1*
b1011110 /
#950000
1!
0<
0>
1=
1.
b1011111 /
#960000
0!
0%
00
0=
0:
0.
0*
0-
0)
0,
1(
b1100000 /
#970000
1!
1>
1.
b1100001 /
#980000
0.
1*
b1100010 /
#990000
0!
1%
0>
1=
1.
b1100011 /
#1000000
0%
1"
0=
1;
0.
0*
1-
b1100100 /
#1010000
1!
1>
1.
b1100101 /
#1020000
0.
1*
b1100110 /
#1030000
0!
1%
0>
1=
1.
b1100111 /
#1040000
0%
0=
0.
0*
0-
1)
b1101000 /
#1050000
1!
1>
1.
b1101001 /
#1060000
0.
1*
b1101010 /
#1070000
0!
1%
0>
1=
1.
b1101011 /
#1080000
1!
0%
0"
10
0=
0;
1:
0.
0*
1-
b1101100 /
#1090000
1%
0!
1<
1>
1.
b1101101 /
#1100000
0.
1*
b1101110 /
#1110000
1!
0<
0>
1=
1.
b1101111 /
#1120000
0!
1"
0%
00
0#
11
0=
0:
08
17
0.
0*
0-
0)
1,
b1110000 /
#1130000
1!
1>
1.
b1110001 /
#1140000
0.
1*
b1110010 /
#1150000
0!
1%
0>
1=
1.
b1110011 /
#1160000
1!
10
0%
0"
19
0=
1;
0.
0*
1-
b1110100 /
#1170000
1%
0!
1<
1>
1.
b1110101 /
#1180000
0.
1*
b1110110 /
#1190000
1!
0<
0>
1=
1.
b1110111 /
#1200000
0%
0=
0.
0*
0-
1)
b1111000 /
#1210000
1%
0!
1<
1>
1.
b1111001 /
#1220000
0.
1*
b1111010 /
#1230000
1!
0<
0>
1=
1.
b1111011 /
#1240000
0%
1"
09
0=
0;
1:
0.
0*
1-
b1111100 /
#1250000
1%
0!
1<
1>
1.
b1111101 /
#1260000
0.
1*
b1111110 /
#1270000
1!
0<
0>
1=
1.
b1111111 /
#1280000
0!
0"
0%
00
01
0=
0:
07
0.
0*
0-
0)
0,
0(
0+
1'
b10000000 /
#1290000
1!
1>
1.
b10000001 /
#1300000
0.
1*
b10000010 /
#1310000
0!
1%
0>
1=
1.
b10000011 /
#1320000
0%
1"
0=
1;
0.
0*
1-
b10000100 /
#1330000
1!
1>
1.
b10000101 /
#1340000
0.
1*
b10000110 /
#1350000
0!
1%
0>
1=
1.
b10000111 /
#1360000
0%
0=
0.
0*
0-
1)
b10001000 /
#1370000
1!
1>
1.
b10001001 /
#1380000
0.
1*
b10001010 /
#1390000
0!
1%
0>
1=
1.
b10001011 /
#1400000
1!
0%
0"
10
0=
0;
1:
0.
0*
1-
b10001100 /
#1410000
1%
0!
1<
1>
1.
b10001101 /
#1420000
0.
1*
b10001110 /
#1430000
1!
0<
0>
1=
1.
b10001111 /
#1440000
0!
0%
00
1#
0=
0:
18
0.
0*
0-
0)
1,
b10010000 /
#1450000
1!
1>
1.
b10010001 /
#1460000
0.
1*
b10010010 /
#1470000
0!
1%
0>
1=
1.
b10010011 /
#1480000
0%
1"
0=
1;
0.
0*
1-
b10010100 /
#1490000
1!
1>
1.
b10010101 /
#1500000
0.
1*
b10010110 /
#1510000
0!
1%
0>
1=
1.
b10010111 /
#1520000
0%
0=
0.
0*
0-
1)
b10011000 /
#1530000
1!
1>
1.
b10011001 /
#1540000
0.
1*
b10011010 /
#1550000
0!
1%
0>
1=
1.
b10011011 /
#1560000
1!
0%
0"
10
0=
0;
1:
0.
0*
1-
b10011100 /
#1570000
1%
0!
1<
1>
1.
b10011101 /
#1580000
0.
1*
b10011110 /
#1590000
1!
0<
0>
1=
1.
b10011111 /
#1600000
0!
0%
00
0=
0:
0.
0*
0-
0)
0,
1(
b10100000 /
#1610000
1!
1>
1.
b10100001 /
#1620000
0.
1*
b10100010 /
#1630000
0!
1%
0>
1=
1.
b10100011 /
#1640000
0%
1"
0=
1;
0.
0*
1-
b10100100 /
#1650000
1!
1>
1.
b10100101 /
#1660000
0.
1*
b10100110 /
#1670000
0!
1%
0>
1=
1.
b10100111 /
#1680000
0%
0=
0.
0*
0-
1)
b10101000 /
#1690000
1!
1>
1.
b10101001 /
#1700000
0.
1*
b10101010 /
#1710000
0!
1%
0>
1=
1.
b10101011 /
#1720000
1!
0%
0"
10
0=
0;
1:
0.
0*
1-
b10101100 /
#1730000
1%
0!
1<
1>
1.
b10101101 /
#1740000
0.
1*
b10101110 /
#1750000
1!
0<
0>
1=
1.
b10101111 /
#1760000
0!
1"
0%
00
0#
11
0=
0:
08
17
0.
0*
0-
0)
1,
b10110000 /
#1770000
1!
1>
1.
b10110001 /
#1780000
0.
1*
b10110010 /
#1790000
0!
1%
0>
1=
1.
b10110011 /
#1800000
1!
10
0%
0"
19
0=
1;
0.
0*
1-
b10110100 /
#1810000
1%
0!
1<
1>
1.
b10110101 /
#1820000
0.
1*
b10110110 /
#1830000
1!
0<
0>
1=
1.
b10110111 /
#1840000
0%
0=
0.
0*
0-
1)
b10111000 /
#1850000
1%
0!
1<
1>
1.
b10111001 /
#1860000
0.
1*
b10111010 /
#1870000
1!
0<
0>
1=
1.
b10111011 /
#1880000
0%
1"
09
0=
0;
1:
0.
0*
1-
b10111100 /
#1890000
1%
0!
1<
1>
1.
b10111101 /
#1900000
0.
1*
b10111110 /
#1910000
1!
0<
0>
1=
1.
b10111111 /
#1920000
0!
0"
1#
0%
00
01
0$
12
0=
0:
07
05
14
0.
0*
0-
0)
0,
0(
1+
b11000000 /
#1930000
1!
1>
1.
b11000001 /
#1940000
0.
1*
b11000010 /
#1950000
0!
1%
0>
1=
1.
b11000011 /
#1960000
0%
1"
0=
1;
0.
0*
1-
b11000100 /
#1970000
1!
1>
1.
b11000101 /
#1980000
0.
1*
b11000110 /
#1990000
0!
1%
0>
1=
1.
b11000111 /
#2000000
0%
0=
0.
0*
0-
1)
b11001000 /
#2010000
1!
1>
1.
b11001001 /
#2020000
0.
1*
b11001010 /
#2030000
0!
1%
0>
1=
1.
b11001011 /
#2040000
1!
0%
0"
10
0=
0;
1:
0.
0*
1-
b11001100 /
#2050000
1%
0!
1<
1>
1.
b11001101 /
#2060000
0.
1*
b11001110 /
#2070000
1!
0<
0>
1=
1.
b11001111 /
#2080000
1"
0!
11
0%
00
0#
16
0=
0:
18
0.
0*
0-
0)
1,
b11010000 /
#2090000
1!
1>
1.
b11010001 /
#2100000
0.
1*
b11010010 /
#2110000
0!
1%
0>
1=
1.
b11010011 /
#2120000
1!
10
0%
0"
19
0=
1;
0.
0*
1-
b11010100 /
#2130000
1%
0!
1<
1>
1.
b11010101 /
#2140000
0.
1*
b11010110 /
#2150000
1!
0<
0>
1=
1.
b11010111 /
#2160000
0%
0=
0.
0*
0-
1)
b11011000 /
#2170000
1%
0!
1<
1>
1.
b11011001 /
#2180000
0.
1*
b11011010 /
#2190000
1!
0<
0>
1=
1.
b11011011 /
#2200000
0%
1"
09
0=
0;
1:
0.
0*
1-
b11011100 /
#2210000
1%
0!
1<
1>
1.
b11011101 /
#2220000
0.
1*
b11011110 /
#2230000
1!
0<
0>
1=
1.
b11011111 /
#2240000
0!
0%
00
0=
0:
0.
0*
0-
0)
0,
1(
b11100000 /
#2250000
1!
1>
1.
b11100001 /
#2260000
0.
1*
b11100010 /
#2270000
0!
1%
0>
1=
1.
b11100011 /
#2280000
1!
10
0%
0"
19
0=
1;
0.
0*
1-
b11100100 /
#2290000
1%
0!
1<
1>
1.
b11100101 /
#2300000
0.
1*
b11100110 /
#2310000
1!
0<
0>
1=
1.
b11100111 /
#2320000
0%
0=
0.
0*
0-
1)
b11101000 /
#2330000
1%
0!
1<
1>
1.
b11101001 /
#2340000
0.
1*
b11101010 /
#2350000
1!
0<
0>
1=
1.
b11101011 /
#2360000
0%
1"
09
0=
0;
1:
0.
0*
1-
b11101100 /
#2370000
1%
0!
1<
1>
1.
b11101101 /
#2380000
0.
1*
b11101110 /
#2390000
1!
0<
0>
1=
1.
b11101111 /
#2400000
0!
0%
00
1#
06
0=
0:
08
17
0.
0*
0-
0)
1,
b11110000 /
#2410000
1!
1>
1.
b11110001 /
#2420000
0.
1*
b11110010 /
#2430000
0!
1%
0>
1=
1.
b11110011 /
#2440000
1!
10
0%
0"
19
0=
1;
0.
0*
1-
b11110100 /
#2450000
1%
0!
1<
1>
1.
b11110101 /
#2460000
0.
1*
b11110110 /
#2470000
1!
0<
0>
1=
1.
b11110111 /
#2480000
0%
0=
0.
0*
0-
1)
b11111000 /
#2490000
1%
0!
1<
1>
1.
b11111001 /
#2500000
0.
1*
b11111010 /
#2510000
1!
0<
0>
1=
1.
b11111011 /
#2520000
0%
1"
09
0=
0;
1:
0.
0*
1-
b11111100 /
#2530000
1%
0!
1<
1>
1.
b11111101 /
#2540000
0.
1*
b11111110 /
#2550000
1!
0<
0>
1=
1.
b11111111 /
#2560000
0!
0"
0#
0%
00
01
02
0=
0:
07
04
1$
0.
0*
0-
0)
0,
0(
0+
0'
1&
b100000000 /
#2570000
1!
1>
1.
b100000001 /
#2580000
0.
1*
b100000010 /
#2590000
0!
1%
0>
1=
1.
b100000011 /
#2600000
0%
1"
0=
1;
0.
0*
1-
b100000100 /
#2610000
1!
1>
1.
b100000101 /
#2620000
0.
1*
b100000110 /
#2630000
0!
1%
0>
1=
1.
b100000111 /
#2640000
0%
0=
0.
0*
0-
1)
b100001000 /
#2650000
1!
1>
1.
b100001001 /
#2660000
0.
1*
b100001010 /
#2670000
0!
1%
0>
1=
1.
b100001011 /
#2680000
1!
0%
0"
10
0=
0;
1:
0.
0*
1-
b100001100 /
#2690000
1%
0!
1<
1>
1.
b100001101 /
#2700000
0.
1*
b100001110 /
#2710000
1!
0<
0>
1=
1.
b100001111 /
#2720000
0!
0%
00
1#
0=
0:
18
0.
0*
0-
0)
1,
b100010000 /
#2730000
1!
1>
1.
b100010001 /
#2740000
0.
1*
b100010010 /
#2750000
0!
1%
0>
1=
1.
b100010011 /
#2760000
0%
1"
0=
1;
0.
0*
1-
b100010100 /
#2770000
1!
1>
1.
b100010101 /
#2780000
0.
1*
b100010110 /
#2790000
0!
1%
0>
1=
1.
b100010111 /
#2800000
0%
0=
0.
0*
0-
1)
b100011000 /
#2810000
1!
1>
1.
b100011001 /
#2820000
0.
1*
b100011010 /
#2830000
0!
1%
0>
1=
1.
b100011011 /
#2840000
1!
0%
0"
10
0=
0;
1:
0.
0*
1-
b100011100 /
#2850000
1%
0!
1<
1>
1.
b100011101 /
#2860000
0.
1*
b100011110 /
#2870000
1!
0<
0>
1=
1.
b100011111 /
#2880000
0!
0%
00
0=
0:
0.
0*
0-
0)
0,
1(
b100100000 /
#2890000
1!
1>
1.
b100100001 /
#2900000
0.
1*
b100100010 /
#2910000
0!
1%
0>
1=
1.
b100100011 /
#2920000
0%
1"
0=
1;
0.
0*
1-
b100100100 /
#2930000
1!
1>
1.
b100100101 /
#2940000
0.
1*
b100100110 /
#2950000
0!
1%
0>
1=
1.
b100100111 /
#2960000
0%
0=
0.
0*
0-
1)
b100101000 /
#2970000
1!
1>
1.
b100101001 /
#2980000
0.
1*
b100101010 /
#2990000
0!
1%
0>
1=
1.
b100101011 /
#3000000
1!
0%
0"
10
0=
0;
1:
0.
0*
1-
b100101100 /
#3010000
1%
0!
1<
1>
1.
b100101101 /
#3020000
0.
1*
b100101110 /
#3030000
1!
0<
0>
1=
1.
b100101111 /
#3040000
0!
1"
0%
00
0#
11
0=
0:
08
17
0.
0*
0-
0)
1,
b100110000 /
#3050000
1!
1>
1.
b100110001 /
#3060000
0.
1*
b100110010 /
#3070000
0!
1%
0>
1=
1.
b100110011 /
#3080000
1!
10
0%
0"
19
0=
1;
0.
0*
1-
b100110100 /
#3090000
1%
0!
1<
1>
1.
b100110101 /
#3100000
0.
1*
b100110110 /
#3110000
1!
0<
0>
1=
1.
b100110111 /
#3120000
0%
0=
0.
0*
0-
1)
b100111000 /
#3130000
1%
0!
1<
1>
1.
b100111001 /
#3140000
0.
1*
b100111010 /
#3150000
1!
0<
0>
1=
1.
b100111011 /
#3160000
0%
1"
09
0=
0;
1:
0.
0*
1-
b100111100 /
#3170000
1%
0!
1<
1>
1.
b100111101 /
#3180000
0.
1*
b100111110 /
#3190000
1!
0<
0>
1=
1.
b100111111 /
#3200000
1#
0!
0"
12
0%
00
01
0$
13
0=
0:
07
15
0.
0*
0-
0)
0,
0(
1+
b101000000 /
#3210000
1!
1>
1.
b101000001 /
#3220000
0.
1*
b101000010 /
#3230000
0!
1%
0>
1=
1.
b101000011 /
#3240000
0%
1"
0=
1;
0.
0*
1-
b101000100 /
#3250000
1!
1>
1.
b101000101 /
#3260000
0.
1*
b101000110 /
#3270000
0!
1%
0>
1=
1.
b101000111 /
#3280000
0%
0=
0.
0*
0-
1)
b101001000 /
#3290000
1!
1>
1.
b101001001 /
#3300000
0.
1*
b101001010 /
#3310000
0!
1%
0>
1=
1.
b101001011 /
#3320000
1!
0%
0"
10
0=
0;
1:
0.
0*
1-
b101001100 /
#3330000
1%
0!
1<
1>
1.
b101001101 /
#3340000
0.
1*
b101001110 /
#3350000
1!
0<
0>
1=
1.
b101001111 /
#3360000
1"
0!
11
0%
00
0#
16
0=
0:
18
0.
0*
0-
0)
1,
b101010000 /
#3370000
1!
1>
1.
b101010001 /
#3380000
0.
1*
b101010010 /
#3390000
0!
1%
0>
1=
1.
b101010011 /
#3400000
1!
10
0%
0"
19
0=
1;
0.
0*
1-
b101010100 /
#3410000
1%
0!
1<
1>
1.
b101010101 /
#3420000
0.
1*
b101010110 /
#3430000
1!
0<
0>
1=
1.
b101010111 /
#3440000
0%
0=
0.
0*
0-
1)
b101011000 /
#3450000
1%
0!
1<
1>
1.
b101011001 /
#3460000
0.
1*
b101011010 /
#3470000
1!
0<
0>
1=
1.
b101011011 /
#3480000
0%
1"
09
0=
0;
1:
0.
0*
1-
b101011100 /
#3490000
1%
0!
1<
1>
1.
b101011101 /
#3500000
0.
1*
b101011110 /
#3510000
1!
0<
0>
1=
1.
b101011111 /
#3520000
0!
0%
00
0=
0:
0.
0*
0-
0)
0,
1(
b101100000 /
#3530000
1!
1>
1.
b101100001 /
#3540000
0.
1*
b101100010 /
#3550000
0!
1%
0>
1=
1.
b101100011 /
#3560000
1!
10
0%
0"
19
0=
1;
0.
0*
1-
b101100100 /
#3570000
1%
0!
1<
1>
1.
b101100101 /
#3580000
0.
1*
b101100110 /
#3590000
1!
0<
0>
1=
1.
b101100111 /
#3600000
0%
0=
0.
0*
0-
1)
b101101000 /
#3610000
1%
0!
1<
1>
1.
b101101001 /
#3620000
0.
1*
b101101010 /
#3630000
1!
0<
0>
1=
1.
b101101011 /
#3640000
0%
1"
09
0=
0;
1:
0.
0*
1-
b101101100 /
#3650000
1%
0!
1<
1>
1.
b101101101 /
#3660000
0.
1*
b101101110 /
#3670000
1!
0<
0>
1=
1.
b101101111 /
#3680000
0!
0%
00
1#
06
0=
0:
08
17
0.
0*
0-
0)
1,
b101110000 /
#3690000
1!
1>
1.
b101110001 /
#3700000
0.
1*
b101110010 /
#3710000
0!
1%
0>
1=
1.
b101110011 /
#3720000
1!
10
0%
0"
19
0=
1;
0.
0*
1-
b101110100 /
#3730000
1%
0!
1<
1>
1.
b101110101 /
#3740000
0.
1*
b101110110 /
#3750000
1!
0<
0>
1=
1.
b101110111 /
#3760000
0%
0=
0.
0*
0-
1)
b101111000 /
#3770000
1%
0!
1<
1>
1.
b101111001 /
#3780000
0.
1*
b101111010 /
#3790000
1!
0<
0>
1=
1.
b101111011 /
#3800000
0%
1"
09
0=
0;
1:
0.
0*
1-
b101111100 /
#3810000
1%
0!
1<
1>
1.
b101111101 /
#3820000
0.
1*
b101111110 /
#3830000
1!
0<
0>
1=
1.
b101111111 /
#3840000
0!
0"
0%
00
01
0=
0:
07
0.
0*
0-
0)
0,
0(
0+
1'
b110000000 /
#3850000
1!
1>
1.
b110000001 /
#3860000
0.
1*
b110000010 /
#3870000
0!
1%
0>
1=
1.
b110000011 /
#3880000
0%
1"
0=
1;
0.
0*
1-
b110000100 /
#3890000
1!
1>
1.
b110000101 /
#3900000
0.
1*
b110000110 /
#3910000
0!
1%
0>
1=
1.
b110000111 /
#3920000
0%
0=
0.
0*
0-
1)
b110001000 /
#3930000
1!
1>
1.
b110001001 /
#3940000
0.
1*
b110001010 /
#3950000
0!
1%
0>
1=
1.
b110001011 /
#3960000
1!
0%
0"
10
0=
0;
1:
0.
0*
1-
b110001100 /
#3970000
1%
0!
1<
1>
1.
b110001101 /
#3980000
0.
1*
b110001110 /
#3990000
1!
0<
0>
1=
1.
b110001111 /
#4000000
1"
0!
11
0%
00
0#
16
0=
0:
18
0.
0*
0-
0)
1,
b110010000 /
#4010000
1!
1>
1.
b110010001 /
#4020000
0.
1*
b110010010 /
#4030000
0!
1%
0>
1=
1.
b110010011 /
#4040000
1!
10
0%
0"
19
0=
1;
0.
0*
1-
b110010100 /
#4050000
1%
0!
1<
1>
1.
b110010101 /
#4060000
0.
1*
b110010110 /
#4070000
1!
0<
0>
1=
1.
b110010111 /
#4080000
0%
0=
0.
0*
0-
1)
b110011000 /
#4090000
1%
0!
1<
1>
1.
b110011001 /
#4100000
0.
1*
b110011010 /
#4110000
1!
0<
0>
1=
1.
b110011011 /
#4120000
0%
1"
09
0=
0;
1:
0.
0*
1-
b110011100 /
#4130000
1%
0!
1<
1>
1.
b110011101 /
#4140000
0.
1*
b110011110 /
#4150000
1!
0<
0>
1=
1.
b110011111 /
#4160000
0!
0%
00
0=
0:
0.
0*
0-
0)
0,
1(
b110100000 /
#4170000
1!
1>
1.
b110100001 /
#4180000
0.
1*
b110100010 /
#4190000
0!
1%
0>
1=
1.
b110100011 /
#4200000
1!
10
0%
0"
19
0=
1;
0.
0*
1-
b110100100 /
#4210000
1%
0!
1<
1>
1.
b110100101 /
#4220000
0.
1*
b110100110 /
#4230000
1!
0<
0>
1=
1.
b110100111 /
#4240000
0%
0=
0.
0*
0-
1)
b110101000 /
#4250000
1%
0!
1<
1>
1.
b110101001 /
#4260000
0.
1*
b110101010 /
#4270000
1!
0<
0>
1=
1.
b110101011 /
#4280000
0%
1"
09
0=
0;
1:
0.
0*
1-
b110101100 /
#4290000
1%
0!
1<
1>
1.
b110101101 /
#4300000
0.
1*
b110101110 /
#4310000
1!
0<
0>
1=
1.
b110101111 /
#4320000
0!
0%
00
1#
06
0=
0:
08
17
0.
0*
0-
0)
1,
b110110000 /
#4330000
1!
1>
1.
b110110001 /
#4340000
0.
1*
b110110010 /
#4350000
0!
1%
0>
1=
1.
b110110011 /
#4360000
1!
10
0%
0"
19
0=
1;
0.
0*
1-
b110110100 /
#4370000
1%
0!
1<
1>
1.
b110110101 /
#4380000
0.
1*
b110110110 /
#4390000
1!
0<
0>
1=
1.
b110110111 /
#4400000
0%
0=
0.
0*
0-
1)
b110111000 /
#4410000
1%
0!
1<
1>
1.
b110111001 /
#4420000
0.
1*
b110111010 /
#4430000
1!
0<
0>
1=
1.
b110111011 /
#4440000
0%
1"
09
0=
0;
1:
0.
0*
1-
b110111100 /
#4450000
1%
0!
1<
1>
1.
b110111101 /
#4460000
0.
1*
b110111110 /
#4470000
1!
0<
0>
1=
1.
b110111111 /
#4480000
0!
0"
0%
00
01
1$
03
0=
0:
07
05
14
0.
0*
0-
0)
0,
0(
1+
b111000000 /
#4490000
1!
1>
1.
b111000001 /
#4500000
0.
1*
b111000010 /
#4510000
0!
1%
0>
1=
1.
b111000011 /
#4520000
0%
1"
0=
1;
0.
0*
1-
b111000100 /
#4530000
1!
1>
1.
b111000101 /
#4540000
0.
1*
b111000110 /
#4550000
0!
1%
0>
1=
1.
b111000111 /
#4560000
0%
0=
0.
0*
0-
1)
b111001000 /
#4570000
1!
1>
1.
b111001001 /
#4580000
0.
1*
b111001010 /
#4590000
0!
1%
0>
1=
1.
b111001011 /
#4600000
1!
0%
0"
10
0=
0;
1:
0.
0*
1-
b111001100 /
#4610000
1%
0!
1<
1>
1.
b111001101 /
#4620000
0.
1*
b111001110 /
#4630000
1!
0<
0>
1=
1.
b111001111 /
#4640000
1"
0!
11
0%
00
0#
16
0=
0:
18
0.
0*
0-
0)
1,
b111010000 /
#4650000
1!
1>
1.
b111010001 /
#4660000
0.
1*
b111010010 /
#4670000
0!
1%
0>
1=
1.
b111010011 /
#4680000
1!
10
0%
0"
19
0=
1;
0.
0*
1-
b111010100 /
#4690000
1%
0!
1<
1>
1.
b111010101 /
#4700000
0.
1*
b111010110 /
#4710000
1!
0<
0>
1=
1.
b111010111 /
#4720000
0%
0=
0.
0*
0-
1)
b111011000 /
#4730000
1%
0!
1<
1>
1.
b111011001 /
#4740000
0.
1*
b111011010 /
#4750000
1!
0<
0>
1=
1.
b111011011 /
#4760000
0%
1"
09
0=
0;
1:
0.
0*
1-
b111011100 /
#4770000
1%
0!
1<
1>
1.
b111011101 /
#4780000
0.
1*
b111011110 /
#4790000
1!
0<
0>
1=
1.
b111011111 /
#4800000
0!
0%
00
0=
0:
0.
0*
0-
0)
0,
1(
b111100000 /
#4810000
1!
1>
1.
b111100001 /
#4820000
0.
1*
b111100010 /
#4830000
0!
1%
0>
1=
1.
b111100011 /
#4840000
1!
10
0%
0"
19
0=
1;
0.
0*
1-
b111100100 /
#4850000
1%
0!
1<
1>
1.
b111100101 /
#4860000
0.
1*
b111100110 /
#4870000
1!
0<
0>
1=
1.
b111100111 /
#4880000
0%
0=
0.
0*
0-
1)
b111101000 /
#4890000
1%
0!
1<
1>
1.
b111101001 /
#4900000
0.
1*
b111101010 /
#4910000
1!
0<
0>
1=
1.
b111101011 /
#4920000
0%
1"
09
0=
0;
1:
0.
0*
1-
b111101100 /
