vcd/SumadorRestador.vcd
$date
	Fri Oct  6 14:06:10 2023
$end
$version
	Icarus Verilog
$end
$timescale
	1ns
$end
$scope module SumadorRestador_tb $end
$var wire 1 ! S3 $end
$var wire 1 " S2 $end
$var wire 1 # S1 $end
$var wire 1 $ S0 $end
$var reg 1 % A0 $end
$var reg 1 & A1 $end
$var reg 1 ' A2 $end
$var reg 1 ( A3 $end
$var reg 1 ) B0 $end
$var reg 1 * B1 $end
$var reg 1 + B2 $end
$var reg 1 , B3 $end
$var integer 32 - i [31:0] $end
$scope module SumadorRestador0 $end
$var wire 1 % A0 $end
$var wire 1 & A1 $end
$var wire 1 ' A2 $end
$var wire 1 ( A3 $end
$var wire 1 ) B0 $end
$var wire 1 * B1 $end
$var wire 1 + B2 $end
$var wire 1 , B3 $end
$var wire 1 . s25 $end
$var wire 1 / s9 $end
$var wire 1 0 s8 $end
$var wire 1 1 s7 $end
$var wire 1 2 s6 $end
$var wire 1 3 s5 $end
$var wire 1 4 s4 $end
$var wire 1 5 s24 $end
$var wire 1 6 s23 $end
$var wire 1 7 s22 $end
$var wire 1 8 s21 $end
$var wire 1 9 s20 $end
$var wire 1 : s19 $end
$var wire 1 ; s18 $end
$var wire 1 < s17 $end
$var wire 1 = s16 $end
$var wire 1 > s15 $end
$var wire 1 ? s14 $end
$var wire 1 @ s13 $end
$var wire 1 A s12 $end
$var wire 1 B s11 $end
$var wire 1 C s10 $end
$var wire 1 ! S3 $end
$var wire 1 " S2 $end
$var wire 1 # S1 $end
$var wire 1 $ S0 $end
$scope module Complemento_2_i0 $end
$var wire 1 ) B0 $end
$var wire 1 * B1 $end
$var wire 1 + B2 $end
$var wire 1 , B3 $end
$var wire 1 D s7 $end
$var wire 1 E s6 $end
$var wire 1 F s5 $end
$var wire 1 G s4 $end
$var wire 1 1 S3 $end
$var wire 1 2 S2 $end
$var wire 1 3 S1 $end
$var wire 1 4 S0 $end
$scope module Inversor_i0 $end
$var wire 1 ) B0 $end
$var wire 1 * B1 $end
$var wire 1 + B2 $end
$var wire 1 , B3 $end
$var wire 1 G \~B0 $end
$var wire 1 F \~B1 $end
$var wire 1 E \~B2 $end
$var wire 1 D \~B3 $end
$upscope $end
$scope module Semisumador_nibble_i1 $end
$var wire 1 G B0 $end
$var wire 1 F B1 $end
$var wire 1 E B2 $end
$var wire 1 D B3 $end
$var wire 1 H UNIDAD $end
$var wire 1 I s6 $end
$var wire 1 J s5 $end
$var wire 1 K s4 $end
$var wire 1 1 S3 $end
$var wire 1 2 S2 $end
$var wire 1 3 S1 $end
$var wire 1 4 S0 $end
$scope module Semisumador_i0 $end
$var wire 1 G A $end
$var wire 1 H B $end
$var wire 1 K C $end
$var wire 1 4 S $end
$upscope $end
$scope module Semisumador_i1 $end
$var wire 1 F A $end
$var wire 1 K B $end
$var wire 1 J C $end
$var wire 1 3 S $end
$upscope $end
$scope module Semisumador_i2 $end
$var wire 1 E A $end
$var wire 1 J B $end
$var wire 1 I C $end
$var wire 1 2 S $end
$upscope $end
$scope module Semisumador_i3 $end
$var wire 1 D A $end
$var wire 1 I B $end
$var wire 1 L C $end
$var wire 1 1 S $end
$upscope $end
$upscope $end
$upscope $end
$scope module Complemento_2_i3 $end
$var wire 1 M s7 $end
$var wire 1 N s6 $end
$var wire 1 O s5 $end
$var wire 1 P s4 $end
$var wire 1 = S3 $end
$var wire 1 > S2 $end
$var wire 1 ? S1 $end
$var wire 1 @ S0 $end
$var wire 1 B B3 $end
$var wire 1 C B2 $end
$var wire 1 / B1 $end
$var wire 1 0 B0 $end
$scope module Inversor_i0 $end
$var wire 1 P \~B0 $end
$var wire 1 O \~B1 $end
$var wire 1 N \~B2 $end
$var wire 1 M \~B3 $end
$var wire 1 B B3 $end
$var wire 1 C B2 $end
$var wire 1 / B1 $end
$var wire 1 0 B0 $end
$upscope $end
$scope module Semisumador_nibble_i1 $end
$var wire 1 P B0 $end
$var wire 1 O B1 $end
$var wire 1 N B2 $end
$var wire 1 M B3 $end
$var wire 1 Q UNIDAD $end
$var wire 1 R s6 $end
$var wire 1 S s5 $end
$var wire 1 T s4 $end
$var wire 1 = S3 $end
$var wire 1 > S2 $end
$var wire 1 ? S1 $end
$var wire 1 @ S0 $end
$scope module Semisumador_i0 $end
$var wire 1 P A $end
$var wire 1 Q B $end
$var wire 1 T C $end
$var wire 1 @ S $end
$upscope $end
$scope module Semisumador_i1 $end
$var wire 1 O A $end
$var wire 1 T B $end
$var wire 1 S C $end
$var wire 1 ? S $end
$upscope $end
$scope module Semisumador_i2 $end
$var wire 1 N A $end
$var wire 1 S B $end
$var wire 1 R C $end
$var wire 1 > S $end
$upscope $end
$scope module Semisumador_i3 $end
$var wire 1 M A $end
$var wire 1 R B $end
$var wire 1 U C $end
$var wire 1 = S $end
$upscope $end
$upscope $end
$upscope $end
$scope module Multiplexor_8_4_i1 $end
$var wire 1 % A0 $end
$var wire 1 & A1 $end
$var wire 1 ' A2 $end
$var wire 1 ( A3 $end
$var wire 1 ) B0 $end
$var wire 1 * B1 $end
$var wire 1 + B2 $end
$var wire 1 , B3 $end
$var wire 1 5 C0 $end
$var wire 1 6 C1 $end
$var wire 1 7 C2 $end
$var wire 1 8 C3 $end
$var wire 1 V s0 $end
$upscope $end
$scope module Multiplexor_9_4_i4 $end
$var wire 1 @ B0 $end
$var wire 1 ? B1 $end
$var wire 1 > B2 $end
$var wire 1 = B3 $end
$var wire 1 9 C0 $end
$var wire 1 : C1 $end
$var wire 1 ; C2 $end
$var wire 1 < C3 $end
$var wire 1 W s0 $end
$var wire 1 A Cin $end
$var wire 1 B A3 $end
$var wire 1 C A2 $end
$var wire 1 / A1 $end
$var wire 1 0 A0 $end
$upscope $end
$scope module Multiplexor_9_4_i5 $end
$var wire 1 5 A0 $end
$var wire 1 6 A1 $end
$var wire 1 7 A2 $end
$var wire 1 8 A3 $end
$var wire 1 9 B0 $end
$var wire 1 : B1 $end
$var wire 1 ; B2 $end
$var wire 1 < B3 $end
$var wire 1 $ C0 $end
$var wire 1 # C1 $end
$var wire 1 " C2 $end
$var wire 1 ! C3 $end
$var wire 1 . Cin $end
$var wire 1 X s0 $end
$upscope $end
$scope module Sumador_nibble_i2 $end
$var wire 1 % A0 $end
$var wire 1 & A1 $end
$var wire 1 ' A2 $end
$var wire 1 ( A3 $end
$var wire 1 4 B0 $end
$var wire 1 3 B1 $end
$var wire 1 2 B2 $end
$var wire 1 1 B3 $end
$var wire 1 Y s6 $end
$var wire 1 Z s5 $end
$var wire 1 [ s4 $end
$var wire 1 B S3 $end
$var wire 1 C S2 $end
$var wire 1 / S1 $end
$var wire 1 0 S0 $end
$var wire 1 A Cout $end
$scope module Sumador_i0 $end
$var wire 1 % A $end
$var wire 1 4 B $end
$var wire 1 Y C $end
$var wire 1 \ Cin $end
$var wire 1 ] s2 $end
$var wire 1 ^ s1 $end
$var wire 1 _ s0 $end
$var wire 1 0 S $end
$scope module Semisumador_i0 $end
$var wire 1 % A $end
$var wire 1 4 B $end
$var wire 1 ] C $end
$var wire 1 _ S $end
$upscope $end
$scope module Semisumador_i1 $end
$var wire 1 _ A $end
$var wire 1 \ B $end
$var wire 1 ^ C $end
$var wire 1 0 S $end
$upscope $end
$upscope $end
$scope module Sumador_i1 $end
$var wire 1 & A $end
$var wire 1 3 B $end
$var wire 1 Z C $end
$var wire 1 Y Cin $end
$var wire 1 ` s2 $end
$var wire 1 a s1 $end
$var wire 1 b s0 $end
$var wire 1 / S $end
$scope module Semisumador_i0 $end
$var wire 1 & A $end
$var wire 1 3 B $end
$var wire 1 ` C $end
$var wire 1 b S $end
$upscope $end
$scope module Semisumador_i1 $end
$var wire 1 b A $end
$var wire 1 Y B $end
$var wire 1 a C $end
$var wire 1 / S $end
$upscope $end
$upscope $end
$scope module Sumador_i2 $end
$var wire 1 ' A $end
$var wire 1 2 B $end
$var wire 1 [ C $end
$var wire 1 Z Cin $end
$var wire 1 c s2 $end
$var wire 1 d s1 $end
$var wire 1 e s0 $end
$var wire 1 C S $end
$scope module Semisumador_i0 $end
$var wire 1 ' A $end
$var wire 1 2 B $end
$var wire 1 c C $end
$var wire 1 e S $end
$upscope $end
$scope module Semisumador_i1 $end
$var wire 1 e A $end
$var wire 1 Z B $end
$var wire 1 d C $end
$var wire 1 C S $end
$upscope $end
$upscope $end
$scope module Sumador_i3 $end
$var wire 1 ( A $end
$var wire 1 1 B $end
$var wire 1 A C $end
$var wire 1 [ Cin $end
$var wire 1 f s2 $end
$var wire 1 g s1 $end
$var wire 1 h s0 $end
$var wire 1 B S $end
$scope module Semisumador_i0 $end
$var wire 1 ( A $end
$var wire 1 1 B $end
$var wire 1 f C $end
$var wire 1 h S $end
$upscope $end
$scope module Semisumador_i1 $end
$var wire 1 h A $end
$var wire 1 [ B $end
$var wire 1 g C $end
$var wire 1 B S $end
$upscope $end
$upscope $end
$upscope $end
$upscope $end
$upscope $end
$enddefinitions $end
$comment Show the parameter values. $end
$dumpall
$end
#0
$dumpvars
0h
0g
0f
0e
0d
0c
0b
0a
0`
0_
0^
0]
0\
0[
0Z
0Y
0X
1W
1V
1U
1T
1S
1R
1Q
1P
1O
1N
1M
1L
1K
1J
1I
1H
1G
1F
1E
1D
0C
0B
0A
0@
0?
0>
0=
0<
0;
0:
09
08
07
06
05
04
03
02
01
00
0/
1.
b0 -
0,
0+
0*
0)
0(
0'
0&
0%
0$
0#
0"
0!
$end
#10000
1$
0U
0M
0R
19
1B
0N
0S
1h
1C
0O
0T
1@
1X
0L
11
1e
1/
0P
0.
0I
12
1b
10
0J
13
1_
0K
14
0V
0G
1)
b1 -
#20000
0$
1#
09
1:
1T
0@
1?
1P
0O
00
1/
0_
1b
1K
04
13
1G
0F
0)
1*
b10 -
#30000
1$
19
1O
0T
1@
0/
0P
0b
10
03
1_
0K
14
0G
1)
b11 -
#40000
0$
0#
1"
09
0:
1;
1S
1T
0@
0?
1>
1P
1O
0N
00
0/
1C
1J
0_
0b
1e
1K
04
03
12
1G
1F
0E
0)
0*
1+
b100 -
#50000
1$
19
1N
0S
0C
0O
0T
1@
0e
1/
0P
02
1b
10
0J
13
1_
0K
14
0G
1)
b101 -
#60000
0$
1#
09
1:
1T
0@
1?
1P
0O
00
1/
0_
1b
1K
04
13
1G
0F
0)
1*
b110 -
#70000
1$
19
1O
0T
1@
0/
0P
0b
10
03
1_
0K
14
0G
1)
b111 -
#80000
1<
1R
1S
0$
0"
0#
09
1T
0@
0?
0>
1L
01
1P
1!
0X
1O
1N
0;
0:
1I
00
1.
0/
0C
1=
1J
0_
18
0b
0e
1W
0M
1K
04
1V
03
02
0A
1B
1G
1F
1E
0f
1h
0)
0*
0+
1(
b1000 -
#90000
1#
1"
0<
1$
1:
1;
0W
1M
0R
19
1A
0B
0N
0S
1f
0h
1C
0O
0T
1@
1X
0L
11
1e
1/
0P
0!
0.
0I
12
1b
10
0J
13
1_
08
0K
14
0V
0G
1)
b1001 -
#100000
0$
1#
09
1T
0@
1:
1?
1P
0O
00
1/
0_
1b
1K
04
13
1G
0F
0)
1*
b1010 -
#110000
0#
1$
0:
1O
19
0T
1@
0/
0P
0b
10
03
1_
0K
14
0G
1)
b1011 -
#120000
0$
0#
1"
1S
09
1T
0@
0:
0?
1;
1>
1P
1O
0N
00
0/
1C
1J
0_
0b
1e
1K
04
03
12
1G
1F
0E
0)
0*
1+
b1100 -
#130000
0"
1#
0;
1$
1N
1:
0S
0C
0O
19
0T
1@
0e
1/
0P
02
1b
10
0J
13
1_
0K
14
0G
1)
b1101 -
#140000
0$
1#
09
1T
0@
1:
1?
1P
0O
00
1/
0_
1b
1K
04
13
1G
0F
0)
1*
b1110 -
#150000
0#
1$
0:
1O
19
0T
1@
0/
0P
0b
10
03
1_
0K
14
0G
1)
b1111 -
#160000
1<
09
1;
1S
0$
1T
0@
0?
1L
01
1P
1"
0X
1O
0g
0:
1I
00
1.
0/
0[
1=
1>
1J
0_
17
0b
0c
1W
1M
0N
1K
04
1V
03
02
0A
0B
1C
1G
1F
1E
0f
0h
1e
0)
0*
0+
0(
1'
b10000 -
#170000
1#
0;
0<
1:
1$
0W
1A
19
0!
1g
1N
0S
1h
1[
0C
0O
0T
1@
1X
0L
11
1c
0e
1/
0P
0"
0.
0I
12
1b
10
0J
13
1_
07
0K
14
0V
0G
1)
b10001 -
#180000
0$
1#
09
1T
0@
1:
1?
1P
0O
00
1/
0_
1b
1K
04
13
1G
0F
0)
1*
b10010 -
#190000
0#
1$
0:
1O
19
0T
1@
0/
0P
0b
10
03
1_
0K
14
0G
1)
b10011 -
#200000
1U
0!
0$
1R
0#
0"
1S
0W
0<
0=
09
1T
0@
0:
0?
1A
1M
0;
0>
1P
1O
1g
0B
1N
00
0/
1[
0C
1J
0_
0b
1c
0e
1K
04
03
12
1G
1F
0E
0)
0*
1+
b10100 -
#210000
0!
0"
1W
0<
0#
0U
0A
0M
0;
1$
0R
0g
1B
0N
0:
0S
0[
1C
0O
19
0T
1@
0c
1e
1/
0P
02
1b
10
0J
13
1_
0K
14
0G
1)
b10101 -
#220000
0$
1#
09
1:
1T
0@
1?
1P
0O
00
1/
0_
1b
1K
04
13
1G
0F
0)
1*
b10110 -
#230000
1$
19
1O
0T
1@
0/
0P
0b
10
03
1_
0K
14
0G
1)
b10111 -
#240000
1S
0$
0<
0#
09
1T
0@
0?
1>
1L
01
1P
1"
1!
0X
1O
0N
0:
1I
00
1.
0/
0[
1C
1;
0=
1J
0_
17
18
0b
0c
1e
1W
0M
1K
04
1V
03
02
0A
1B
1G
1F
1E
0f
1h
0)
0*
0+
1(
b11000 -
#250000
1#
0;
1$
1<
1:
0W
19
1A
1N
0S
1f
0h
1[
0C
0O
0T
1@
1X
0L
11
1c
0e
1/
0P
0"
1!
0.
0I
12
1b
10
0J
13
1_
07
08
0K
14
0V
0G
1)
b11001 -
#260000
0$
1#
09
1T
0@
1:
1?
1P
0O
00
1/
0_
1b
1K
04
13
1G
0F
0)
1*
b11010 -
#270000
0#
1$
0:
1O
19
0T
1@
0/
0P
0b
10
03
1_
0K
14
0G
1)
b11011 -
#280000
1!
0$
1R
0#
0"
1S
1<
1=
09
1T
0@
0:
0?
0M
0;
0>
1P
1O
1B
1N
00
0/
1[
0C
1J
0_
0b
1c
0e
1K
04
03
12
1G
1F
0E
0)
0*
1+
b11100 -
#290000
0!
1"
0<
1#
1M
1;
1$
0R
0B
0N
1:
0S
0[
1C
0O
19
0T
1@
0c
1e
1/
0P
02
1b
10
0J
13
1_
0K
14
0G
1)
b11101 -
#300000
0$
1#
09
1T
0@
1:
1?
1P
0O
00
1/
0_
1b
1K
04
13
1G
0F
0)
1*
b11110 -
#310000
0#
1$
0:
1O
19
0T
1@
0/
0P
0b
10
03
1_
0K
14
0G
1)
b11111 -
#320000
1<
09
1:
0$
1T
0@
0[
0"
1L
01
1P
1#
0X
0d
1I
00
1.
0Z
1=
1;
1>
1?
1J
0_
16
0`
1W
1M
1N
0O
1K
04
1V
03
02
0A
0B
0C
1/
1G
1F
1E
0f
0h
0e
1b
0)
0*
0+
0(
0'
1&
b100000 -
#330000
0;
0:
0<
1$
0W
1A
19
0"
0!
1g
1[
1h
1d
1O
0T
1@
1X
0L
11
1e
1Z
0/
0P
0#
0.
0I
12
1`
0b
10
0J
13
1_
06
0K
14
0V
0G
1)
b100001 -
#340000
0!
1U
0=
0W
0<
0"
0$
1R
1A
1M
0#
1S
1g
0B
0;
0>
09
1T
0@
1[
1N
0:
0?
1P
1d
0C
1O
00
1Z
0/
0_
1`
0b
1K
04
13
1G
0F
0)
1*
b100010 -
#350000
0!
1W
0<
0"
0A
0M
0#
0U
0=
0g
1B
0;
1$
0R
0[
0N
0:
0S
0d
1C
0O
19
0T
1@
0Z
1/
0P
0`
1b
10
03
1_
0K
14
0G
1)
b100011 -
#360000
0$
1#
0"
09
1:
0;
1T
0@
1?
0>
1P
0O
0N
00
0Z
1/
1C
1J
0_
0`
1b
1e
1K
04
03
12
1G
1F
0E
0)
0*
1+
b100100 -
#370000
1$
19
1O
0T
1@
0e
1Z
0/
0P
02
1`
0b
10
0J
13
1_
0K
14
0G
1)
b100101 -
#380000
1"
0$
0#
1;
09
0:
1S
1>
1T
0@
0N
0?
1P
1C
1O
00
1Z
0/
0_
1`
0b
1K
04
13
1G
0F
0)
1*
b100110 -
#390000
1$
19
1N
0S
0C
0O
0T
1@
0Z
1/
0P
0`
1b
10
03
1_
0K
14
0G
1)
b100111 -
#400000
0<
0$
0g
0"
09
1T
0@
0[
1?
1>
1L
01
1P
1#
1!
0X
0d
0O
1N
1;
1I
00
1.
0Z
1/
0C
1:
0=
1J
0_
16
18
0`
1b
0e
1W
0M
1K
04
1V
03
02
0A
1B
1G
1F
1E
0f
1h
0)
0*
0+
1(
b101000 -
#410000
0;
0:
1$
1<
0W
19
0"
1A
1[
1f
0h
1d
1O
0T
1@
1X
0L
11
1e
1Z
0/
0P
0#
1!
0.
0I
12
1`
0b
10
0J
13
1_
06
08
0K
14
0V
0G
1)
b101001 -
#420000
1!
1=
1<
0U
0"
0$
1R
0M
0#
1S
1B
0;
0>
09
1T
0@
1[
1N
0:
0?
1P
1d
0C
1O
00
1Z
0/
0_
1`
0b
1K
04
13
1G
0F
0)
1*
b101010 -
#430000
0!
0<
1"
1M
1#
1=
0B
1;
1$
0R
0[
0N
1:
0S
0d
1C
0O
19
0T
1@
0Z
1/
0P
0`
1b
10
03
1_
0K
14
0G
1)
b101011 -
#440000
0$
1#
1"
09
1T
0@
1:
1?
1;
0>
1P
0O
0N
00
0Z
1/
1C
1J
0_
0`
1b
1e
1K
04
03
12
1G
1F
0E
0)
0*
1+
b101100 -
#450000
0#
1$
0:
1O
19
0T
1@
0e
1Z
0/
0P
02
1`
0b
10
0J
13
1_
0K
14
0G
1)
b101101 -
#460000
1"
0$
0#
1S
1;
1>
09
1T
0@
0N
0:
0?
1P
1C
1O
00
1Z
0/
0_
1`
0b
1K
04
13
1G
0F
0)
1*
b101110 -
#470000
0"
1#
0;
1$
1N
1:
0S
0C
0O
19
0T
1@
0Z
1/
0P
0`
1b
10
03
1_
0K
14
0G
1)
b101111 -
#480000
1<
09
0$
0;
1T
0@
1?
1L
01
1P
1"
0X
0O
0g
1I
00
1.
0Z
1/
0[
1:
1=
0>
1J
0_
17
16
0`
1b
0c
1W
1M
0N
1K
04
1V
03
02
0A
0B
1C
1G
1F
1E
0f
0h
1e
0)
0*
0+
0(
1'
b110000 -
#490000
0:
0<
1;
1$
0W
1A
19
0!
1g
1h
1[
1O
0T
1@
1X
0L
11
1c
0e
1Z
0/
0P
1"
0#
0.
0I
12
1`
0b
10
0J
13
1_
07
06
0K
14
0V
0G
1)
b110001 -
#500000
1"
0$
0#
1S
1;
1>
09
1T
0@
0N
0:
0?
1P
1C
1O
00
1Z
0/
0_
1`
0b
1K
04
13
1G
0F
0)
1*
b110010 -
#510000
0"
1#
0;
1$
1N
1:
0S
0C
0O
19
0T
1@
0Z
1/
0P
0`
1b
10
03
1_
0K
14
0G
1)
b110011 -
#520000
0!
0$
1#
0"
0W
0<
1=
09
1T
0@
1:
1?
1A
1M
0;
1>
1P
0d
0O
1g
0B
1N
00
0Z
1/
1[
0C
1J
0_
0`
1b
1c
0e
1K
04
03
12
1G
1F
0E
0)
0*
1+
b110100 -
#530000
0#
1$
0:
1d
1O
19
0T
1@
0c
1e
1Z
0/
0P
02
1`
0b
10
0J
13
1_
0K
14
0G
1)
b110101 -
#540000
0!
1U
0=
0W
0<
0"
0$
1R
1A
1M
0#
1S
1g
0B
0;
0>
09
1T
0@
1[
1N
0:
0?
1P
1d
0C
1O
00
1Z
0/
0_
1`
0b
1K
04
13
1G
0F
0)
1*
b110110 -
#550000
0!
1W
0<
0"
0A
0M
0#
0U
0=
0g
1B
0;
1$
0R
0[
0N
0:
0S
0d
1C
0O
19
0T
1@
0Z
1/
0P
0`
1b
10
03
1_
0K
14
0G
1)
b110111 -
#560000
0$
0<
09
1T
0@
1?
0>
1L
01
1P
1"
1#
1!
0X
0O
0N
1I
00
1.
0Z
1/
0[
1C
1:
0;
0=
1J
0_
17
16
18
0`
1b
0c
1e
1W
0M
1K
04
1V
03
02
0A
1B
1G
1F
1E
0f
1h
0)
0*
0+
1(
b111000 -
#570000
0:
1$
1<
1;
0W
19
1A
1f
0h
1[
1O
0T
1@
1X
0L
11
1c
0e
1Z
0/
0P
1"
0#
1!
0.
0I
12
1`
0b
10
0J
13
1_
07
06
08
0K
14
0V
0G
1)
b111001 -
#580000
1"
0$
0#
1S
1;
1>
09
1T
0@
0N
0:
0?
1P
1C
1O
00
1Z
0/
0_
1`
0b
1K
04
13
1G
0F
0)
1*
b111010 -
#590000
0"
1#
0;
1$
1N
1:
0S
0C
0O
19
0T
1@
0Z
1/
0P
0`
1b
10
03
1_
0K
14
0G
1)
b111011 -
#600000
1!
0$
1#
0"
1<
0=
09
1T
0@
1:
1?
0M
0;
1>
1P
0d
0O
1B
1N
00
0Z
1/
1[
0C
1J
0_
0`
1b
1c
0e
1K
04
03
12
1G
1F
0E
0)
0*
1+
b111100 -
#610000
0#
1$
0:
1d
1O
19
0T
1@
0c
1e
1Z
0/
0P
02
1`
0b
10
0J
13
1_
0K
14
0G
1)
b111101 -
#620000
1!
1=
1<
0U
0"
0$
1R
0M
0#
1S
1B
0;
0>
09
1T
0@
1[
1N
0:
0?
1P
1d
0C
1O
00
1Z
0/
0_
1`
0b
1K
04
13
1G
0F
0)
1*
b111110 -
#630000
0!
0<
1"
1M
1#
1=
0B
1;
1$
0R
0[
0N
1:
0S
0d
1C
0O
19
0T
1@
0Z
1/
0P
0`
1b
10
03
1_
0K
14
0G
1)
b111111 -
#640000
1<
0S
0#
0"
1L
01
0X
0Z
1O
1?
1I
1.
0a
0/
1:
1=
1;
1>
19
0T
1@
1J
15
1W
1M
1N
0P
1K
04
1V
03
02
0A
0B
0C
0Y
10
1G
1F
1E
0f
0h
0e
0b
0]
1_
0)
0*
0+
0(
0'
0&
1%
b1000000 -
#650000
0<
0;
0W
1U
0=
0:
1A
1R
0>
09
0"
0#
0!
1g
1[
1S
0?
1h
1d
1Z
1T
0@
1X
0L
11
1e
1a
1P
0$
0.
0I
12
1b
1Y
00
0J
13
1]
0_
05
0K
14
0V
0G
1)
b1000001 -
#660000
0!
1W
0<
0"
0A
0M
1$
0g
1B
0;
0#
0U
0=
0[
0N
0R
0>
19
0T
1@
0d
1C
0:
0S
0?
0P
0Z
0O
0Y
10
0a
1/
0]
1_
1b
1K
04
13
1G
0F
0)
1*
b1000010 -
#670000
1#
0$
1:
09
1?
1T
0@
1P
0b
1Y
00
03
1]
0_
0K
14
0G
1)
b1000011 -
#680000
0!
1$
1W
0<
1#
0"
0A
0M
19
0g
1B
0=
1:
0;
0[
0R
0T
1@
0d
0S
1?
0>
0P
0Z
1O
0N
0Y
10
0a
0/
1C
1J
0]
1_
0b
1e
1K
04
03
12
1G
1F
0E
0)
0*
1+
b1000100 -
#690000
1"
0#
1;
0$
0:
1>
09
1S
0?
1Z
1T
0@
0e
1a
1P
02
1b
1Y
00
0J
13
1]
0_
0K
14
0G
1)
b1000101 -
#700000
1"
1$
0#
1;
19
0:
1N
1>
0T
1@
0C
0S
0?
0P
0Z
0O
0Y
10
0a
1/
0]
1_
1b
1K
04
13
1G
0F
0)
1*
b1000110 -
#710000
1#
0$
1:
09
1?
1T
0@
1P
0b
1Y
00
03
1]
0_
0K
14
0G
1)
b1000111 -
#720000
0#
0"
19
0T
1@
1:
0S
1?
1>
1L
01
0P
1!
1$
0X
0Z
1O
1N
1;
1I
0Y
10
1.
0a
0/
0C
0=
1J
0]
1_
18
15
0b
0e
1W
0M
1K
04
1V
03
02
0A
1B
1G
1F
1E
0f
1h
0)
0*
0+
1(
b1001000 -
#730000
0;
1<
1=
0:
0W
1R
0>
09
0"
0#
1A
1[
1S
0?
1f
0h
1d
1Z
1T
0@
1X
0L
11
1e
1a
1P
1!
0$
0.
0I
12
1b
1Y
00
0J
13
1]
0_
08
05
0K
14
0V
0G
1)
b1001001 -
#740000
0!
0<
1"
1M
1$
0B
1;
1#
1=
0[
0N
0R
0>
19
0T
1@
0d
1C
1:
0S
0?
0P
0Z
0O
0Y
10
0a
1/
0]
1_
1b
1K
04
13
1G
0F
0)
1*
b1001010 -
#750000
0$
1?
09
1T
0@
1P
0b
1Y
00
03
1]
0_
0K
14
0G
1)
b1001011 -
#760000
0!
0<
1M
1$
0B
0#
0U
1=
1"
0[
0R
19
0T
1@
0d
0:
0S
1?
1;
0>
0P
0Z
1O
0N
0Y
10
0a
0/
1C
1J
0]
1_
0b
1e
1K
04
03
12
1G
1F
0E
0)
0*
1+
b1001100 -
#770000
0$
1>
1S
0?
1Z
09
1T
0@
0e
1a
1P
02
1b
1Y
00
0J
13
1]
0_
0K
14
0G
1)
b1001101 -
#780000
0"
1$
0;
1#
1N
1>
19
0T
1@
0C
1:
0S
0?
0P
0Z
0O
0Y
10
0a
1/
0]
1_
1b
1K
04
13
1G
0F
0)
1*
b1001110 -
#790000
0$
1?
09
1T
0@
1P
0b
1Y
00
03
1]
0_
0K
14
0G
1)
b1001111 -
#800000
1<
0U
1:
19
0;
0#
0R
0T
1@
0d
0S
1?
1L
01
0P
1"
1$
0X
0Z
1O
0g
1I
0Y
10
1.
0a
0/
0[
1=
0>
1J
0]
1_
17
15
0b
0c
1W
1M
0N
1K
04
1V
03
02
0A
0B
1C
1G
1F
1E
0f
0h
1e
0)
0*
0+
0(
1'
b1010000 -
#810000
0<
1;
0W
0:
1A
1>
09
0#
0!
1g
1S
0?
1h
1[
1Z
1T
0@
1X
0L
11
1c
0e
1a
1P
1"
0$
0.
0I
12
1b
1Y
00
0J
13
1]
0_
07
05
0K
14
0V
0G
1)
b1010001 -
#820000
0"
1$
0;
1#
1N
1>
19
0T
1@
0C
1:
0S
0?
0P
0Z
0O
0Y
10
0a
1/
0]
1_
1b
1K
04
13
1G
0F
0)
1*
b1010010 -
#830000
0$
1?
09
1T
0@
1P
0b
1Y
00
03
1]
0_
0K
14
0G
1)
b1010011 -
#840000
0!
1$
0#
0"
0W
0<
1=
19
0T
1@
0:
0S
1?
1A
1M
0;
1>
0P
0Z
1O
1g
0B
1N
0Y
10
0a
0/
1[
0C
1J
0]
1_
0b
1c
0e
1K
04
03
12
1G
1F
0E
0)
0*
1+
b1010100 -
#850000
1U
0=
0$
1R
0>
1S
0?
1d
1Z
09
1T
0@
0c
1e
1a
1P
02
1b
1Y
00
0J
13
1]
0_
0K
14
0G
1)
b1010101 -
#860000
0!
1W
0<
0"
0A
0M
1$
0g
1B
0;
0#
0U
0=
0[
0N
0R
0>
19
0T
1@
0d
1C
0:
0S
0?
0P
0Z
0O
0Y
10
0a
1/
0]
1_
1b
1K
04
13
1G
0F
0)
1*
b1010110 -
#870000
1#
0$
1:
09
1?
1T
0@
1P
0b
1Y
00
03
1]
0_
0K
14
0G
1)
b1010111 -
#880000
0g
0#
0R
0<
19
0T
1@
0d
1:
0S
1?
0>
1L
01
0P
1"
1!
1$
0X
0Z
1O
0N
1I
0Y
10
1.
0a
0/
0[
1C
0;
0=
1J
0]
1_
17
18
15
0b
0c
1e
1W
0M
1K
04
1V
03
02
0A
1B
1G
1F
1E
0f
1h
0)
0*
0+
1(
b1011000 -
#890000
1<
1;
0:
0W
1>
09
0#
1A
1S
0?
1f
0h
1[
1Z
1T
0@
1X
0L
11
1c
0e
1a
1P
1"
1!
0$
0.
0I
12
1b
1Y
00
0J
13
1]
0_
07
08
05
0K
14
0V
0G
1)
b1011001 -
#900000
0"
1$
0;
1#
1N
1>
19
0T
1@
0C
1:
0S
0?
0P
0Z
0O
0Y
10
0a
1/
0]
1_
1b
1K
04
13
1G
0F
0)
1*
b1011010 -
#910000
0$
1?
09
1T
0@
1P
0b
1Y
00
03
1]
0_
0K
14
0G
1)
b1011011 -
#920000
1!
1$
0#
0"
1<
0=
19
0T
1@
0:
0S
1?
0M
0;
1>
0P
0Z
1O
1B
1N
0Y
10
0a
0/
1[
0C
1J
0]
1_
0b
1c
0e
1K
04
03
12
1G
1F
0E
0)
0*
1+
b1011100 -
#930000
1=
0$
1R
0>
1S
0?
1d
1Z
09
1T
0@
0c
1e
1a
1P
02
1b
1Y
00
0J
13
1]
0_
0K
14
0G
1)
b1011101 -
#940000
0!
0<
1"
1M
1$
0B
1;
1#
1=
0[
0N
0R
0>
19
0T
1@
0d
1C
1:
0S
0?
0P
0Z
0O
0Y
10
0a
1/
0]
1_
1b
1K
04
13
1G
0F
0)
1*
b1011110 -
#950000
0$
1?
09
1T
0@
1P
0b
1Y
00
03
1]
0_
0K
14
0G
1)
b1011111 -
#960000
19
1>
0T
1@
0"
0g
1L
01
0P
1$
0X
1<
0[
1I
0Y
10
1.
1;
0R
0d
0:
0S
0?
1J
0]
1_
16
15
0`
1W
1M
1N
0Z
0O
1K
04
1V
03
02
0A
0B
0C
0a
1/
1G
1F
1E
0f
0h
0e
1b
0)
0*
0+
0(
0'
1&
b1100000 -
#970000
0;
0<
0W
1:
1A
09
0"
0!
1g
1[
1?
1h
1d
1T
0@
1X
0L
11
1e
1Z
1P
1#
0$
0.
0I
12
1`
0b
1Y
00
0J
13
1]
0_
06
05
0K
14
0V
0G
1)
b1100001 -
#980000
1$
0#
0U
1=
0R
1>
19
0T
1@
0:
0S
1?
0P
1O
0Y
10
0a
0/
0]
1_
1`
0b
1K
04
13
1G
0F
0)
1*
b1100010 -
#990000
1U
0=
0$
1R
0>
1S
0?
09
1T
0@
1a
1P
0`
1b
1Y
00
03
1]
0_
0K
14
0G
1)
b1100011 -
